…
*Count the number of aisles and the aisles with the most items orderd*

``` r
count(instacart, aisle, name = "n_orders") %>%
arrange(desc(n_orders)) 
```

    ## # A tibble: 134 x 2
    ##    aisle                         n_orders
    ##    <chr>                            <int>
    ##  1 fresh vegetables                150609
    ##  2 fresh fruits                    150473
    ##  3 packaged vegetables fruits       78493
    ##  4 yogurt                           55240
    ##  5 packaged cheese                  41699
    ##  6 water seltzer sparkling water    36617
    ##  7 milk                             32644
    ##  8 chips pretzels                   31269
    ##  9 soy lactosefree                  26240
    ## 10 bread                            23635
    ## # … with 124 more rows
…
\#Problem 2

*Clean the dataset BRFSS*

``` r
data("brfss_smart2010")
brfss = brfss_smart2010 %>%
  janitor::clean_names() %>% 
  filter(topic == "Overall Health", response == "Excellent" | response == "Very Good" | response == "Good" | response == "Fair" | response == "Poor") %>%
mutate(response = factor(response, levels =  c("Poor","Fair","Good","Very Good","Excellent")))
  brfss
```

    ## # A tibble: 8,500 x 23
    ##     year locationabbr locationdesc class topic question response
    ##    <int> <chr>        <chr>        <chr> <chr> <chr>    <fct>   
    ##  1  2010 AL           AL - Jeffer… Heal… Over… How is … Excelle…
    ##  2  2010 AL           AL - Jeffer… Heal… Over… How is … Good    
    ##  3  2010 AL           AL - Jeffer… Heal… Over… How is … Fair    
    ##  4  2010 AL           AL - Jeffer… Heal… Over… How is … Poor    
    ##  5  2010 AL           AL - Mobile… Heal… Over… How is … Excelle…
    ##  6  2010 AL           AL - Mobile… Heal… Over… How is … Good    
    ##  7  2010 AL           AL - Mobile… Heal… Over… How is … Fair    
    ##  8  2010 AL           AL - Mobile… Heal… Over… How is … Poor    
    ##  9  2010 AL           AL - Tuscal… Heal… Over… How is … Excelle…
    ## 10  2010 AL           AL - Tuscal… Heal… Over… How is … Good    
    ## # … with 8,490 more rows, and 16 more variables: sample_size <int>,
    ## #   data_value <dbl>, confidence_limit_low <dbl>,
    ## #   confidence_limit_high <dbl>, display_order <int>,
    ## #   data_value_unit <chr>, data_value_type <chr>,
    ## #   data_value_footnote_symbol <chr>, data_value_footnote <chr>,
    ## #   data_source <chr>, class_id <chr>, topic_id <chr>, location_id <chr>,
    ## #   question_id <chr>, respid <chr>, geo_location <chr>

*In 2002, which states were observed at 7 or more locations? What about
in 2010?*

``` r
brfss %>%
  filter(year == 2002 ) %>%
  group_by(locationabbr) %>%
  summarize(n_locations = n_distinct(geo_location)) %>%
  select(locationabbr, n_locations) %>%
  arrange(desc(n_locations))
```

    ## # A tibble: 49 x 2
    ##    locationabbr n_locations
    ##    <chr>              <int>
    ##  1 PA                    10
    ##  2 MA                     8
    ##  3 NJ                     8
    ##  4 CT                     7
    ##  5 FL                     7
    ##  6 NC                     7
    ##  7 MD                     6
    ##  8 NH                     5
    ##  9 NY                     5
    ## 10 UT                     5
    ## # … with 39 more rows

``` r
## There are 6 states (PA, MA, NJ, CT, FL, NC) that were observed at 7 or more locations in 2002
```

``` r
brfss %>%
  filter(year == 2010 ) %>%
  group_by(locationabbr) %>%
  summarize(n_locations = n_distinct(geo_location)) %>%
  select(locationabbr, n_locations) %>%
  arrange(desc(n_locations))
```

    ## # A tibble: 49 x 2
    ##    locationabbr n_locations
    ##    <chr>              <int>
    ##  1 FL                    41
    ##  2 NJ                    19
    ##  3 TX                    16
    ##  4 CA                    12
    ##  5 MD                    12
    ##  6 NC                    12
    ##  7 NE                    10
    ##  8 WA                    10
    ##  9 MA                     9
    ## 10 NY                     9
    ## # … with 39 more rows
…
    ## Parsed with column specification:
    ## cols(
    ##   .default = col_double(),
    ##   day = col_character()
    ## )

    ## See spec(...) for full column specifications.

``` r
acceleration
```

    ## # A tibble: 35 x 1,444
    ##     week day_id day   time_of_week activity_1 activity_2 activity_3
    ##    <dbl>  <dbl> <chr> <chr>             <dbl>      <dbl>      <dbl>
    ##  1     1      1 Frid… week_day           88.4       82.2       64.4
    ##  2     1      2 Mond… week_day            1          1          1  
    ##  3     1      3 Satu… weekend             1          1          1  
    ##  4     1      4 Sund… weekend             1          1          1  
    ##  5     1      5 Thur… week_day           47.4       48.8       46.9
    ##  6     1      6 Tues… week_day           64.8       59.5       73.7
    ##  7     1      7 Wedn… week_day           71.1      103.        68.5
    ##  8     2      8 Frid… week_day          675        542       1010  
    ##  9     2      9 Mond… week_day          291        335        393  
    ## 10     2     10 Satu… weekend            64         11          1  
    ## # … with 25 more rows, and 1,437 more variables: activity_4 <dbl>,
    ## #   activity_5 <dbl>, activity_6 <dbl>, activity_7 <dbl>,
    ## #   activity_8 <dbl>, activity_9 <dbl>, activity_10 <dbl>,
    ## #   activity_11 <dbl>, activity_12 <dbl>, activity_13 <dbl>,
    ## #   activity_14 <dbl>, activity_15 <dbl>, activity_16 <dbl>,
    ## #   activity_17 <dbl>, activity_18 <dbl>, activity_19 <dbl>,
    ## #   activity_20 <dbl>, activity_21 <dbl>, activity_22 <dbl>,
    ## #   activity_23 <dbl>, activity_24 <dbl>, activity_25 <dbl>,
    ## #   activity_26 <dbl>, activity_27 <dbl>, activity_28 <dbl>,
…
*Aggregate accross minutes to create a total activity variable for each
day, and create a table showing these totals*

``` r
total_acc = acceleration %>%
    pivot_longer(activity_1:activity_1440,
    names_to = "daily_activity",
    values_to = "activity"
    ) %>%
    group_by(week, day_id, day, time_of_week) %>%
    summarize(total_activity = sum(activity)) 
total_acc
```

    ## # A tibble: 35 x 5
    ## # Groups:   week, day_id, day [35]
    ##     week day_id day       time_of_week total_activity
    ##    <dbl>  <dbl> <chr>     <chr>                 <dbl>
    ##  1     1      1 Friday    week_day            480543.
    ##  2     1      2 Monday    week_day             78828.
    ##  3     1      3 Saturday  weekend             376254 
    ##  4     1      4 Sunday    weekend             631105 
    ##  5     1      5 Thursday  week_day            355924.
    ##  6     1      6 Tuesday   week_day            307094.
    ##  7     1      7 Wednesday week_day            340115.
    ##  8     2      8 Friday    week_day            568839 
    ##  9     2      9 Monday    week_day            295431 
    ## 10     2     10 Saturday  weekend             607175 
    ## # … with 25 more rows
…
